%YAML 1.1
%TAG !u! tag:unity3d.com,2011:
--- !u!74 &7400000
AnimationClip:
  m_ObjectHideFlags: 0
  m_CorrespondingSourceObject: {fileID: 0}
  m_PrefabInstance: {fileID: 0}
  m_PrefabAsset: {fileID: 0}
  m_Name: Dead
  serializedVersion: 6
  m_Legacy: 0
  m_Compressed: 0
  m_UseHighQualityCurve: 1
  m_RotationCurves: []
  m_CompressedRotationCurves: []
  m_EulerCurves: []
  m_PositionCurves: []
  m_ScaleCurves: []
  m_FloatCurves: []
  m_PPtrCurves:
  - curve:
    - time: 0
      value: {fileID: 21300000, guid: 3cba74b661012dd47a1130c9ad3cd0e4, type: 3}
    - time: 0.083333336
      value: {fileID: 21300000, guid: 0024927916f9c8647b07624cb0c58167, type: 3}
    - time: 0.16666667
      value: {fileID: 21300000, guid: 693dce1ebfa7c294985989a3a9a3732b, type: 3}
    - time: 0.25
      value: {fileID: 21300000, guid: b6cdbbba95106c34281e744980025487, type: 3}
    - time: 0.33333334
      value: {fileID: 21300000, guid: aeaac06c60f1aff4d8d9d9e4bfb66a9a, type: 3}
    - time: 0.41666666
      value: {fileID: 21300000, guid: b43f6a200585f474ebacf9238e586468, type: 3}
    - time: 0.5
      value: {fileID: 21300000, guid: d3f17a06e1f2f0645ba52ed942fa4f58, type: 3}
    - time: 0.5833333
      value: {fileID: 21300000, guid: 4cad3e21d63d0e748ada0253c61835c7, type: 3}
    attribute: m_Sprite
    path: 
    classID: 212
    script: {fileID: 0}
  m_SampleRate: 12
  m_WrapMode: 0
  m_Bounds:
    m_Center: {x: 0, y: 0, z: 0}
    m_Extent: {x: 0, y: 0, z: 0}
  m_ClipBindingConstant:
    genericBindings:
    - serializedVersion: 2
      path: 0
      attribute: 0
      script: {fileID: 0}
      typeID: 212
      customType: 23
      isPPtrCurve: 1
    pptrCurveMapping:
    - {fileID: 21300000, guid: 3cba74b661012dd47a1130c9ad3cd0e4, type: 3}
    - {fileID: 21300000, guid: 0024927916f9c8647b07624cb0c58167, type: 3}
    - {fileID: 21300000, guid: 693dce1ebfa7c294985989a3a9a3732b, type: 3}
    - {fileID: 21300000, guid: b6cdbbba95106c34281e744980025487, type: 3}
    - {fileID: 21300000, guid: aeaac06c60f1aff4d8d9d9e4bfb66a9a, type: 3}
    - {fileID: 21300000, guid: b43f6a200585f474ebacf9238e586468, type: 3}
    - {fileID: 21300000, guid: d3f17a06e1f2f0645ba52ed942fa4f58, type: 3}
    - {fileID: 21300000, guid: 4cad3e21d63d0e748ada0253c61835c7, type: 3}
  m_AnimationClipSettings:
    serializedVersion: 2
    m_AdditiveReferencePoseClip: {fileID: 0}
    m_AdditiveReferencePoseTime: 0
    m_StartTime: 0
    m_StopTime: 0.6666666
    m_OrientationOffsetY: 0
    m_Level: 0
    m_CycleOffset: 0
    m_HasAdditiveReferencePose: 0
    m_LoopTime: 0
    m_LoopBlend: 0
    m_LoopBlendOrientation: 0
    m_LoopBlendPositionY: 0
    m_LoopBlendPositionXZ: 0
    m_KeepOriginalOrientation: 0
    m_KeepOriginalPositionY: 1
    m_KeepOriginalPositionXZ: 0
    m_HeightFromFeet: 0
    m_Mirror: 0
  m_EditorCurves: []
  m_EulerEditorCurves: []
  m_HasGenericRootTransform: 0
  m_HasMotionFloatCurves: 0
  m_Events: []
