%YAML 1.1
%TAG !u! tag:unity3d.com,2011:
--- !u!74 &7400000
AnimationClip:
  m_ObjectHideFlags: 0
  m_CorrespondingSourceObject: {fileID: 0}
  m_PrefabInstance: {fileID: 0}
  m_PrefabAsset: {fileID: 0}
  m_Name: PlayerIdle
  serializedVersion: 6
  m_Legacy: 0
  m_Compressed: 0
  m_UseHighQualityCurve: 1
  m_RotationCurves: []
  m_CompressedRotationCurves: []
  m_EulerCurves: []
  m_PositionCurves: []
  m_ScaleCurves: []
  m_FloatCurves: []
  m_PPtrCurves:
  - curve:
    - time: 0
      value: {fileID: 21300000, guid: 3d4537098d9789549806b72d060ff57d, type: 3}
    - time: 0.033333335
      value: {fileID: 21300000, guid: 81a2215588efc864fa7ac1da82faf7f8, type: 3}
    - time: 0.06666667
      value: {fileID: 21300000, guid: dff11a4fbf2d754489cd77fe26bc8502, type: 3}
    - time: 0.11666667
      value: {fileID: 21300000, guid: e6e9f06292ee9854fbed65206a6a90ea, type: 3}
    - time: 0.15
      value: {fileID: 21300000, guid: c15292173071ebf44a2fcd2301ea1d59, type: 3}
    - time: 0.18333334
      value: {fileID: 21300000, guid: 349c12577065b6647b72b0cffada3edf, type: 3}
    - time: 0.21666667
      value: {fileID: 21300000, guid: 1de0faa72a4a9f041bafa933ce6c33ba, type: 3}
    - time: 0.25
      value: {fileID: 21300000, guid: c399e5c9e5c8a5142a2de42dfc48ba5e, type: 3}
    - time: 0.26666668
      value: {fileID: 21300000, guid: 5bde486b018276646bfc40c1b56c96c3, type: 3}
    - time: 0.31666666
      value: {fileID: 21300000, guid: 041961660b946d64f836645e36bee03f, type: 3}
    - time: 0.35
      value: {fileID: 21300000, guid: b894440d38f920c4a9a7c912377550fa, type: 3}
    - time: 0.38333333
      value: {fileID: 21300000, guid: b915389be29de2b49948c6ef80826dc3, type: 3}
    - time: 0.41666666
      value: {fileID: 21300000, guid: 523e27f4b03bd7e4fa534c2dc2e5cd70, type: 3}
    - time: 0.46666667
      value: {fileID: 21300000, guid: 079f8c4cadb9b964a9471f488e383e12, type: 3}
    - time: 0.5
      value: {fileID: 21300000, guid: f2a25af4263a77e4d99609146a16db35, type: 3}
    - time: 0.53333336
      value: {fileID: 21300000, guid: a7955395f7799f94caeaa35eb2cd09d0, type: 3}
    - time: 0.56666666
      value: {fileID: 21300000, guid: 9f00c2ce11839324f996ff137b2aa975, type: 3}
    - time: 0.6
      value: {fileID: 21300000, guid: fa8f2fcce2ea53c45abc2656e224a166, type: 3}
    - time: 0.6333333
      value: {fileID: 21300000, guid: f6532d69d180b0d4eb52db38d2dd6aa8, type: 3}
    - time: 0.68333334
      value: {fileID: 21300000, guid: 91a2c74813014244ebf38773c547641f, type: 3}
    - time: 0.71666664
      value: {fileID: 21300000, guid: fd95056f165cf9848a6de9c0a46d21b0, type: 3}
    - time: 0.75
      value: {fileID: 21300000, guid: 0d0909ecf3797374a98451f638f925eb, type: 3}
    - time: 0.78333336
      value: {fileID: 21300000, guid: 57d61636e3dba8b4fa19379e63aa3ce3, type: 3}
    - time: 0.8333333
      value: {fileID: 21300000, guid: 204ad32475ad83b408ae624c342f948e, type: 3}
    - time: 0.85
      value: {fileID: 21300000, guid: fa9fad50df8748040820c8816dc466fd, type: 3}
    - time: 0.8833333
      value: {fileID: 21300000, guid: 0200e048186810748a8f9fa03d7c1b4c, type: 3}
    - time: 0.9166667
      value: {fileID: 21300000, guid: 2b2653f61170f7d4ebf75447f654f01c, type: 3}
    - time: 0.95
      value: {fileID: 21300000, guid: 4a4dd7d69e8634b42bc7000530e77955, type: 3}
    - time: 0.98333335
      value: {fileID: 21300000, guid: ae9dc042ee30a8a47bb16986eb57db76, type: 3}
    - time: 1.0333333
      value: {fileID: 21300000, guid: 94933e58d03c2874b912890e90208882, type: 3}
    - time: 1.0666667
      value: {fileID: 21300000, guid: 31a922071ab1e1e4bb1877a7bde0ae57, type: 3}
    - time: 1.1
      value: {fileID: 21300000, guid: 118afee64b666fe478a970b34c4bb6ec, type: 3}
    attribute: m_Sprite
    path: 
    classID: 212
    script: {fileID: 0}
  m_SampleRate: 60
  m_WrapMode: 0
  m_Bounds:
    m_Center: {x: 0, y: 0, z: 0}
    m_Extent: {x: 0, y: 0, z: 0}
  m_ClipBindingConstant:
    genericBindings:
    - serializedVersion: 2
      path: 0
      attribute: 0
      script: {fileID: 0}
      typeID: 212
      customType: 23
      isPPtrCurve: 1
    pptrCurveMapping:
    - {fileID: 21300000, guid: 3d4537098d9789549806b72d060ff57d, type: 3}
    - {fileID: 21300000, guid: 81a2215588efc864fa7ac1da82faf7f8, type: 3}
    - {fileID: 21300000, guid: dff11a4fbf2d754489cd77fe26bc8502, type: 3}
    - {fileID: 21300000, guid: e6e9f06292ee9854fbed65206a6a90ea, type: 3}
    - {fileID: 21300000, guid: c15292173071ebf44a2fcd2301ea1d59, type: 3}
    - {fileID: 21300000, guid: 349c12577065b6647b72b0cffada3edf, type: 3}
    - {fileID: 21300000, guid: 1de0faa72a4a9f041bafa933ce6c33ba, type: 3}
    - {fileID: 21300000, guid: c399e5c9e5c8a5142a2de42dfc48ba5e, type: 3}
    - {fileID: 21300000, guid: 5bde486b018276646bfc40c1b56c96c3, type: 3}
    - {fileID: 21300000, guid: 041961660b946d64f836645e36bee03f, type: 3}
    - {fileID: 21300000, guid: b894440d38f920c4a9a7c912377550fa, type: 3}
    - {fileID: 21300000, guid: b915389be29de2b49948c6ef80826dc3, type: 3}
    - {fileID: 21300000, guid: 523e27f4b03bd7e4fa534c2dc2e5cd70, type: 3}
    - {fileID: 21300000, guid: 079f8c4cadb9b964a9471f488e383e12, type: 3}
    - {fileID: 21300000, guid: f2a25af4263a77e4d99609146a16db35, type: 3}
    - {fileID: 21300000, guid: a7955395f7799f94caeaa35eb2cd09d0, type: 3}
    - {fileID: 21300000, guid: 9f00c2ce11839324f996ff137b2aa975, type: 3}
    - {fileID: 21300000, guid: fa8f2fcce2ea53c45abc2656e224a166, type: 3}
    - {fileID: 21300000, guid: f6532d69d180b0d4eb52db38d2dd6aa8, type: 3}
    - {fileID: 21300000, guid: 91a2c74813014244ebf38773c547641f, type: 3}
    - {fileID: 21300000, guid: fd95056f165cf9848a6de9c0a46d21b0, type: 3}
    - {fileID: 21300000, guid: 0d0909ecf3797374a98451f638f925eb, type: 3}
    - {fileID: 21300000, guid: 57d61636e3dba8b4fa19379e63aa3ce3, type: 3}
    - {fileID: 21300000, guid: 204ad32475ad83b408ae624c342f948e, type: 3}
    - {fileID: 21300000, guid: fa9fad50df8748040820c8816dc466fd, type: 3}
    - {fileID: 21300000, guid: 0200e048186810748a8f9fa03d7c1b4c, type: 3}
    - {fileID: 21300000, guid: 2b2653f61170f7d4ebf75447f654f01c, type: 3}
    - {fileID: 21300000, guid: 4a4dd7d69e8634b42bc7000530e77955, type: 3}
    - {fileID: 21300000, guid: ae9dc042ee30a8a47bb16986eb57db76, type: 3}
    - {fileID: 21300000, guid: 94933e58d03c2874b912890e90208882, type: 3}
    - {fileID: 21300000, guid: 31a922071ab1e1e4bb1877a7bde0ae57, type: 3}
    - {fileID: 21300000, guid: 118afee64b666fe478a970b34c4bb6ec, type: 3}
  m_AnimationClipSettings:
    serializedVersion: 2
    m_AdditiveReferencePoseClip: {fileID: 0}
    m_AdditiveReferencePoseTime: 0
    m_StartTime: 0
    m_StopTime: 1.1166667
    m_OrientationOffsetY: 0
    m_Level: 0
    m_CycleOffset: 0
    m_HasAdditiveReferencePose: 0
    m_LoopTime: 1
    m_LoopBlend: 0
    m_LoopBlendOrientation: 0
    m_LoopBlendPositionY: 0
    m_LoopBlendPositionXZ: 0
    m_KeepOriginalOrientation: 0
    m_KeepOriginalPositionY: 1
    m_KeepOriginalPositionXZ: 0
    m_HeightFromFeet: 0
    m_Mirror: 0
  m_EditorCurves: []
  m_EulerEditorCurves: []
  m_HasGenericRootTransform: 0
  m_HasMotionFloatCurves: 0
  m_Events: []
