%YAML 1.1
%TAG !u! tag:unity3d.com,2011:
--- !u!74 &7400000
AnimationClip:
  m_ObjectHideFlags: 0
  m_CorrespondingSourceObject: {fileID: 0}
  m_PrefabInstance: {fileID: 0}
  m_PrefabAsset: {fileID: 0}
  m_Name: PlayerJumpDOWN
  serializedVersion: 6
  m_Legacy: 0
  m_Compressed: 0
  m_UseHighQualityCurve: 1
  m_RotationCurves: []
  m_CompressedRotationCurves: []
  m_EulerCurves: []
  m_PositionCurves: []
  m_ScaleCurves: []
  m_FloatCurves: []
  m_PPtrCurves:
  - curve:
    - time: 0
      value: {fileID: 21300000, guid: b5eeeb798e9d1914eadac49dde729f5c, type: 3}
    - time: 0.083333336
      value: {fileID: 21300000, guid: 290326de6cf69864ba4fdedb82465e2e, type: 3}
    - time: 0.16666667
      value: {fileID: 21300000, guid: be063202d044acf41a1f3e6149f6ace8, type: 3}
    - time: 0.25
      value: {fileID: 21300000, guid: 482b233b3d22552429afed5925e097df, type: 3}
    - time: 0.33333334
      value: {fileID: 21300000, guid: 64fbef5d29fba164caa702809de9bdbf, type: 3}
    - time: 0.41666666
      value: {fileID: 21300000, guid: 3ced2a4b4dd1e8945954ee6b36caa980, type: 3}
    - time: 0.5
      value: {fileID: 21300000, guid: 1ccfa1b182529ed459d031091f9b401b, type: 3}
    - time: 0.5833333
      value: {fileID: 21300000, guid: 313924c19ad0e5b4ab9731d2632168fa, type: 3}
    - time: 0.6666667
      value: {fileID: 21300000, guid: 480ae2b3aa6a275489039115efb90c10, type: 3}
    - time: 0.75
      value: {fileID: 21300000, guid: dde586df797c92640a3e878d54129166, type: 3}
    - time: 0.8333333
      value: {fileID: 21300000, guid: f71e78b0c07770d498d148594e0f06e1, type: 3}
    - time: 0.9166667
      value: {fileID: 21300000, guid: ae928cfc3a21561478c0fd652333d8aa, type: 3}
    attribute: m_Sprite
    path: 
    classID: 212
    script: {fileID: 0}
  m_SampleRate: 12
  m_WrapMode: 0
  m_Bounds:
    m_Center: {x: 0, y: 0, z: 0}
    m_Extent: {x: 0, y: 0, z: 0}
  m_ClipBindingConstant:
    genericBindings:
    - serializedVersion: 2
      path: 0
      attribute: 0
      script: {fileID: 0}
      typeID: 212
      customType: 23
      isPPtrCurve: 1
    pptrCurveMapping:
    - {fileID: 21300000, guid: b5eeeb798e9d1914eadac49dde729f5c, type: 3}
    - {fileID: 21300000, guid: 290326de6cf69864ba4fdedb82465e2e, type: 3}
    - {fileID: 21300000, guid: be063202d044acf41a1f3e6149f6ace8, type: 3}
    - {fileID: 21300000, guid: 482b233b3d22552429afed5925e097df, type: 3}
    - {fileID: 21300000, guid: 64fbef5d29fba164caa702809de9bdbf, type: 3}
    - {fileID: 21300000, guid: 3ced2a4b4dd1e8945954ee6b36caa980, type: 3}
    - {fileID: 21300000, guid: 1ccfa1b182529ed459d031091f9b401b, type: 3}
    - {fileID: 21300000, guid: 313924c19ad0e5b4ab9731d2632168fa, type: 3}
    - {fileID: 21300000, guid: 480ae2b3aa6a275489039115efb90c10, type: 3}
    - {fileID: 21300000, guid: dde586df797c92640a3e878d54129166, type: 3}
    - {fileID: 21300000, guid: f71e78b0c07770d498d148594e0f06e1, type: 3}
    - {fileID: 21300000, guid: ae928cfc3a21561478c0fd652333d8aa, type: 3}
  m_AnimationClipSettings:
    serializedVersion: 2
    m_AdditiveReferencePoseClip: {fileID: 0}
    m_AdditiveReferencePoseTime: 0
    m_StartTime: 0
    m_StopTime: 1
    m_OrientationOffsetY: 0
    m_Level: 0
    m_CycleOffset: 0
    m_HasAdditiveReferencePose: 0
    m_LoopTime: 0
    m_LoopBlend: 0
    m_LoopBlendOrientation: 0
    m_LoopBlendPositionY: 0
    m_LoopBlendPositionXZ: 0
    m_KeepOriginalOrientation: 0
    m_KeepOriginalPositionY: 1
    m_KeepOriginalPositionXZ: 0
    m_HeightFromFeet: 0
    m_Mirror: 0
  m_EditorCurves: []
  m_EulerEditorCurves: []
  m_HasGenericRootTransform: 0
  m_HasMotionFloatCurves: 0
  m_Events: []
