%YAML 1.1
%TAG !u! tag:unity3d.com,2011:
--- !u!74 &7400000
AnimationClip:
  m_ObjectHideFlags: 0
  m_CorrespondingSourceObject: {fileID: 0}
  m_PrefabInstance: {fileID: 0}
  m_PrefabAsset: {fileID: 0}
  m_Name: PlayerJumpUP
  serializedVersion: 6
  m_Legacy: 0
  m_Compressed: 0
  m_UseHighQualityCurve: 1
  m_RotationCurves: []
  m_CompressedRotationCurves: []
  m_EulerCurves: []
  m_PositionCurves: []
  m_ScaleCurves: []
  m_FloatCurves: []
  m_PPtrCurves:
  - curve:
    - time: 0
      value: {fileID: 21300000, guid: ec557b4c9f96f854c8673df401755bd0, type: 3}
    - time: 0.083333336
      value: {fileID: 21300000, guid: 578dcc0fbe9f3e743bf2e65ab25bdc4b, type: 3}
    - time: 0.16666667
      value: {fileID: 21300000, guid: da54198b0f14b5446b6076d3299a5c47, type: 3}
    - time: 0.25
      value: {fileID: 21300000, guid: cd201a433ac36e044ba3d22879d72f2b, type: 3}
    - time: 0.33333334
      value: {fileID: 21300000, guid: 40ef9484f9e06d54db117f628100942c, type: 3}
    - time: 0.41666666
      value: {fileID: 21300000, guid: b6598c89120f916498dd48ee5ef5e7f7, type: 3}
    - time: 0.5
      value: {fileID: 21300000, guid: 00deda941585b3a4b8193c24e568b58c, type: 3}
    - time: 0.5833333
      value: {fileID: 21300000, guid: 1b995601031bfdd48a041b706ad782b1, type: 3}
    - time: 0.6666667
      value: {fileID: 21300000, guid: 7586f170f33e8b841ab92f3a81a1a077, type: 3}
    - time: 0.75
      value: {fileID: 21300000, guid: 89380361af1e558428d90c6a67ed340b, type: 3}
    - time: 0.8333333
      value: {fileID: 21300000, guid: cd03194f427fca24cb4f75a4ca2fd953, type: 3}
    attribute: m_Sprite
    path: 
    classID: 212
    script: {fileID: 0}
  m_SampleRate: 12
  m_WrapMode: 0
  m_Bounds:
    m_Center: {x: 0, y: 0, z: 0}
    m_Extent: {x: 0, y: 0, z: 0}
  m_ClipBindingConstant:
    genericBindings:
    - serializedVersion: 2
      path: 0
      attribute: 0
      script: {fileID: 0}
      typeID: 212
      customType: 23
      isPPtrCurve: 1
    pptrCurveMapping:
    - {fileID: 21300000, guid: ec557b4c9f96f854c8673df401755bd0, type: 3}
    - {fileID: 21300000, guid: 578dcc0fbe9f3e743bf2e65ab25bdc4b, type: 3}
    - {fileID: 21300000, guid: da54198b0f14b5446b6076d3299a5c47, type: 3}
    - {fileID: 21300000, guid: cd201a433ac36e044ba3d22879d72f2b, type: 3}
    - {fileID: 21300000, guid: 40ef9484f9e06d54db117f628100942c, type: 3}
    - {fileID: 21300000, guid: b6598c89120f916498dd48ee5ef5e7f7, type: 3}
    - {fileID: 21300000, guid: 00deda941585b3a4b8193c24e568b58c, type: 3}
    - {fileID: 21300000, guid: 1b995601031bfdd48a041b706ad782b1, type: 3}
    - {fileID: 21300000, guid: 7586f170f33e8b841ab92f3a81a1a077, type: 3}
    - {fileID: 21300000, guid: 89380361af1e558428d90c6a67ed340b, type: 3}
    - {fileID: 21300000, guid: cd03194f427fca24cb4f75a4ca2fd953, type: 3}
  m_AnimationClipSettings:
    serializedVersion: 2
    m_AdditiveReferencePoseClip: {fileID: 0}
    m_AdditiveReferencePoseTime: 0
    m_StartTime: 0
    m_StopTime: 0.9166667
    m_OrientationOffsetY: 0
    m_Level: 0
    m_CycleOffset: 0
    m_HasAdditiveReferencePose: 0
    m_LoopTime: 0
    m_LoopBlend: 0
    m_LoopBlendOrientation: 0
    m_LoopBlendPositionY: 0
    m_LoopBlendPositionXZ: 0
    m_KeepOriginalOrientation: 0
    m_KeepOriginalPositionY: 1
    m_KeepOriginalPositionXZ: 0
    m_HeightFromFeet: 0
    m_Mirror: 0
  m_EditorCurves: []
  m_EulerEditorCurves: []
  m_HasGenericRootTransform: 0
  m_HasMotionFloatCurves: 0
  m_Events: []
