%YAML 1.1
%TAG !u! tag:unity3d.com,2011:
--- !u!74 &7400000
AnimationClip:
  m_ObjectHideFlags: 0
  m_CorrespondingSourceObject: {fileID: 0}
  m_PrefabInstance: {fileID: 0}
  m_PrefabAsset: {fileID: 0}
  m_Name: PlayerRun
  serializedVersion: 6
  m_Legacy: 0
  m_Compressed: 0
  m_UseHighQualityCurve: 1
  m_RotationCurves: []
  m_CompressedRotationCurves: []
  m_EulerCurves: []
  m_PositionCurves: []
  m_ScaleCurves: []
  m_FloatCurves: []
  m_PPtrCurves:
  - curve:
    - time: 0
      value: {fileID: 21300000, guid: e627298b6ea0c1b448d46c95e774a7fd, type: 3}
    - time: 0.083333336
      value: {fileID: 21300000, guid: 8ac37963d07486340887e4cc5c5b841a, type: 3}
    - time: 0.16666667
      value: {fileID: 21300000, guid: a9f4d25258db19840b5a3059bf0d6dcc, type: 3}
    - time: 0.25
      value: {fileID: 21300000, guid: 4b1453246af94eb44accf41c4e68b9c1, type: 3}
    - time: 0.33333334
      value: {fileID: 21300000, guid: d1b88f3c308256341bab4f28fc39ce2e, type: 3}
    - time: 0.41666666
      value: {fileID: 21300000, guid: 1fd91f6e8e799b643b89a56e923cfd8c, type: 3}
    - time: 0.5
      value: {fileID: 21300000, guid: 2fda332406196df42a5618b8e686ad5d, type: 3}
    - time: 0.5833333
      value: {fileID: 21300000, guid: 5b4fafcbf1caead4585d0518a65687a9, type: 3}
    - time: 0.6666667
      value: {fileID: 21300000, guid: a7c4126eb8700c143bd5d3475c9b1d95, type: 3}
    - time: 0.75
      value: {fileID: 21300000, guid: 9890eebfa30cc8b49912ed411b30a7d2, type: 3}
    - time: 0.8333333
      value: {fileID: 21300000, guid: 630d15194addf5a45a4420f3f120c0e9, type: 3}
    attribute: m_Sprite
    path: 
    classID: 212
    script: {fileID: 0}
  m_SampleRate: 12
  m_WrapMode: 0
  m_Bounds:
    m_Center: {x: 0, y: 0, z: 0}
    m_Extent: {x: 0, y: 0, z: 0}
  m_ClipBindingConstant:
    genericBindings:
    - serializedVersion: 2
      path: 0
      attribute: 0
      script: {fileID: 0}
      typeID: 212
      customType: 23
      isPPtrCurve: 1
    pptrCurveMapping:
    - {fileID: 21300000, guid: e627298b6ea0c1b448d46c95e774a7fd, type: 3}
    - {fileID: 21300000, guid: 8ac37963d07486340887e4cc5c5b841a, type: 3}
    - {fileID: 21300000, guid: a9f4d25258db19840b5a3059bf0d6dcc, type: 3}
    - {fileID: 21300000, guid: 4b1453246af94eb44accf41c4e68b9c1, type: 3}
    - {fileID: 21300000, guid: d1b88f3c308256341bab4f28fc39ce2e, type: 3}
    - {fileID: 21300000, guid: 1fd91f6e8e799b643b89a56e923cfd8c, type: 3}
    - {fileID: 21300000, guid: 2fda332406196df42a5618b8e686ad5d, type: 3}
    - {fileID: 21300000, guid: 5b4fafcbf1caead4585d0518a65687a9, type: 3}
    - {fileID: 21300000, guid: a7c4126eb8700c143bd5d3475c9b1d95, type: 3}
    - {fileID: 21300000, guid: 9890eebfa30cc8b49912ed411b30a7d2, type: 3}
    - {fileID: 21300000, guid: 630d15194addf5a45a4420f3f120c0e9, type: 3}
  m_AnimationClipSettings:
    serializedVersion: 2
    m_AdditiveReferencePoseClip: {fileID: 0}
    m_AdditiveReferencePoseTime: 0
    m_StartTime: 0
    m_StopTime: 0.9166666
    m_OrientationOffsetY: 0
    m_Level: 0
    m_CycleOffset: 0
    m_HasAdditiveReferencePose: 0
    m_LoopTime: 1
    m_LoopBlend: 0
    m_LoopBlendOrientation: 0
    m_LoopBlendPositionY: 0
    m_LoopBlendPositionXZ: 0
    m_KeepOriginalOrientation: 0
    m_KeepOriginalPositionY: 1
    m_KeepOriginalPositionXZ: 0
    m_HeightFromFeet: 0
    m_Mirror: 0
  m_EditorCurves: []
  m_EulerEditorCurves: []
  m_HasGenericRootTransform: 0
  m_HasMotionFloatCurves: 0
  m_Events: []
